logs/verilog/approx_output.txt
VCD info: dumpfile approx.vcd opened for output.
Time:                10000 | Input A:  1024 | Approx Output:    96 
Time:                20000 | Input A:   512 | Approx Output:   128 
Time:                30000 | Input A:   256 | Approx Output:   192 
Time:                40000 | Input A:    64 | Approx Output:   512 
Time:                50000 | Input A:  2048 | Approx Output:    64 
Time:                60000 | Input A:  4096 | Approx Output:    48 
Time:                70000 | Input A: 16384 | Approx Output:    24 
Time:                80000 | Input A:   300 | Approx Output:   192 
Time:                90000 | Input A:   700 | Approx Output:   128 
Time:               100000 | Input A:  1500 | Approx Output:    96 
Time:               110000 | Input A: 25600 | Approx Output:    24 
Time:               120000 | Input A: 36864 | Approx Output:    16 
Time:               130000 | Input A: 57600 | Approx Output:    16 
Time:               140000 | Input A:   255 | Approx Output:   256 
Time:               150000 | Input A:   256 | Approx Output:   192 
Time:               160000 | Input A:   257 | Approx Output:   192 
Time:               170000 | Input A:   511 | Approx Output:   192 
Time:               180000 | Input A:   513 | Approx Output:   128 
Time:               190000 | Input A:  1023 | Approx Output:   128 
Time:               200000 | Input A:  1025 | Approx Output:    96 
Time:               210000 | Input A:     1 | Approx Output:  4096 
Time:               220000 | Input A:     2 | Approx Output:  2048 
Time:               230000 | Input A:     3 | Approx Output:  2048 
Time:               240000 | Input A:     4 | Approx Output:  2048 
Time:               250000 | Input A:     8 | Approx Output:  1024 
Time:               260000 | Input A: 32768 | Approx Output:    16 
Time:               270000 | Input A: 40000 | Approx Output:    16 
Time:               280000 | Input A: 50000 | Approx Output:    16 
Time:               290000 | Input A: 65535 | Approx Output:    16 
