logs/verilog/pipeline_output.txt
VCD info: dumpfile nr_pipeline.vcd opened for output.
Time:                 5000 | Input A:     x | Start x0:     x | Result:     x
Time:               215000 | Input A:   255 | Start x0:   260 | Result:   256
Time:               225000 | Input A:   256 | Start x0:   256 | Result:   256
Time:               235000 | Input A:   257 | Start x0:   250 | Result:   255
Time:               245000 | Input A:   511 | Start x0:   130 | Result:   181
Time:               255000 | Input A:   513 | Start x0:   125 | Result:   180
Time:               265000 | Input A:  1023 | Start x0:   100 | Result:   128
Time:               275000 | Input A:  1025 | Start x0:    95 | Result:   127
Time:               285000 | Input A:   300 | Start x0:   200 | Result:   236
Time:               295000 | Input A:   700 | Start x0:   140 | Result:   155
Time:               305000 | Input A:  1500 | Start x0:    80 | Result:   106
Time:               315000 | Input A:  3000 | Start x0:    60 | Result:    75
Time:               325000 | Input A: 10000 | Start x0:    30 | Result:    43
Time:               335000 | Input A:     1 | Start x0:  4096 | Result: 11599
Time:               345000 | Input A:     3 | Start x0:  2048 | Result:  2366
Time:               355000 | Input A:     5 | Start x0:  2500 | Result:  1821
Time:               365000 | Input A:     7 | Start x0:  2000 | Result:  1547
Time:               375000 | Input A:     9 | Start x0:  1800 | Result:  1363
Time:               385000 | Input A: 32767 | Start x0:    20 | Result:    25
Time:               395000 | Input A: 40000 | Start x0:    18 | Result:    22
Time:               405000 | Input A: 50000 | Start x0:    17 | Result:    23
Time:               415000 | Input A: 65535 | Start x0:    16 | Result:    16
Time:               425000 | Input A:     1 | Start x0:  4096 | Result: 11599
Time:               435000 | Input A:     2 | Start x0:  4096 | Result:  7560
Time:               445000 | Input A:     4 | Start x0:  2048 | Result:  2048
Time:               455000 | Input A:     8 | Start x0:  1500 | Result:  1449
Time:               465000 | Input A:    16 | Start x0:  1000 | Result:  1024
Time:               475000 | Input A:    32 | Start x0:   800 | Result:   725
Time:               485000 | Input A:    64 | Start x0:   600 | Result:   511
Time:               495000 | Input A:   128 | Start x0:   400 | Result:   362
Time:               505000 | Input A:   256 | Start x0:   256 | Result:   256
Time:               515000 | Input A:   512 | Start x0:   180 | Result:   181
Time:               525000 | Input A:  1024 | Start x0:   128 | Result:   128
Time:               535000 | Input A:  2048 | Start x0:    90 | Result:    91
Time:               545000 | Input A:  4096 | Start x0:    64 | Result:    64
Time:               555000 | Input A:  8192 | Start x0:    45 | Result:    47
Time:               565000 | Input A: 16384 | Start x0:    32 | Result:    32
Time:               575000 | Input A: 32768 | Start x0:    22 | Result:    27
Simulation completed all cases.
