logs/verilog/top_output.txt
VCD info: dumpfile top.vcd opened for output.
Time:               255000 | Input A:          1 | Result:   16777279 | Golden:   16777279 | Diff:           0 | Exact Match:           1 out of         200
Time:               265000 | Input A:          2 | Result:   11863339 | Golden:   11863339 | Diff:           0 | Exact Match:           2 out of         200
Time:               275000 | Input A:          4 | Result:    8388640 | Golden:    8388640 | Diff:           0 | Exact Match:           3 out of         200
Time:               285000 | Input A:          8 | Result:    5931670 | Golden:    5931670 | Diff:           0 | Exact Match:           4 out of         200
Time:               295000 | Input A:         16 | Result:    4194320 | Golden:    4194320 | Diff:           0 | Exact Match:           5 out of         200
Time:               305000 | Input A:         32 | Result:    2965834 | Golden:    2965834 | Diff:           0 | Exact Match:           6 out of         200
Time:               315000 | Input A:         38 | Result:    2721629 | Golden:    2721629 | Diff:           0 | Exact Match:           7 out of         200
Time:               325000 | Input A:         64 | Result:    2097160 | Golden:    2097160 | Diff:           0 | Exact Match:           8 out of         200
Time:               335000 | Input A:        128 | Result:    1482918 | Golden:    1482918 | Diff:           0 | Exact Match:           9 out of         200
Time:               345000 | Input A:        203 | Result:    1177531 | Golden:    1177531 | Diff:           0 | Exact Match:          10 out of         200
Time:               355000 | Input A:        226 | Result:    1116012 | Golden:    1116012 | Diff:           0 | Exact Match:          11 out of         200
Time:               365000 | Input A:        256 | Result:    1048580 | Golden:    1048580 | Diff:           0 | Exact Match:          12 out of         200
Time:               375000 | Input A:        512 | Result:     741458 | Golden:     741458 | Diff:           0 | Exact Match:          13 out of         200
Time:               385000 | Input A:       1023 | Result:     524548 | Golden:     524548 | Diff:           0 | Exact Match:          14 out of         200
Time:               395000 | Input A:       1024 | Result:     524290 | Golden:     524290 | Diff:           0 | Exact Match:          15 out of         200
Time:               405000 | Input A:       1110 | Result:     503570 | Golden:     503570 | Diff:           0 | Exact Match:          16 out of         200
Time:               415000 | Input A:       1281 | Result:     468756 | Golden:     468756 | Diff:           0 | Exact Match:          17 out of         200
Time:               425000 | Input A:       1353 | Result:     456113 | Golden:     456113 | Diff:           0 | Exact Match:          18 out of         200
Time:               435000 | Input A:       1814 | Result:     393915 | Golden:     393915 | Diff:           0 | Exact Match:          19 out of         200
Time:               445000 | Input A:       1874 | Result:     387559 | Golden:     387559 | Diff:           0 | Exact Match:          20 out of         200
Time:               455000 | Input A:       2048 | Result:     370729 | Golden:     370729 | Diff:           0 | Exact Match:          21 out of         200
Time:               465000 | Input A:       2233 | Result:     355040 | Golden:     355040 | Diff:           0 | Exact Match:          22 out of         200
Time:               475000 | Input A:       2287 | Result:     350824 | Golden:     350824 | Diff:           0 | Exact Match:          23 out of         200
Time:               485000 | Input A:       3036 | Result:     304489 | Golden:     304489 | Diff:           0 | Exact Match:          24 out of         200
Time:               495000 | Input A:       3282 | Result:     292855 | Golden:     292855 | Diff:           0 | Exact Match:          25 out of         200
Time:               505000 | Input A:       4096 | Result:     262145 | Golden:     262145 | Diff:           0 | Exact Match:          26 out of         200
Time:               515000 | Input A:       4616 | Result:     246938 | Golden:     246938 | Diff:           0 | Exact Match:          27 out of         200
Time:               525000 | Input A:       4956 | Result:     238317 | Golden:     238317 | Diff:           0 | Exact Match:          28 out of         200
Time:               535000 | Input A:       5128 | Result:     234287 | Golden:     234287 | Diff:           0 | Exact Match:          29 out of         200
Time:               545000 | Input A:       5220 | Result:     232213 | Golden:     232213 | Diff:           0 | Exact Match:          30 out of         200
Time:               555000 | Input A:       5460 | Result:     227052 | Golden:     227052 | Diff:           0 | Exact Match:          31 out of         200
Time:               565000 | Input A:       6075 | Result:     215253 | Golden:     215253 | Diff:           0 | Exact Match:          32 out of         200
Time:               575000 | Input A:       6384 | Result:     209978 | Golden:     209978 | Diff:           0 | Exact Match:          33 out of         200
Time:               585000 | Input A:       7121 | Result:     198815 | Golden:     198815 | Diff:           0 | Exact Match:          34 out of         200
Time:               595000 | Input A:       7238 | Result:     197202 | Golden:     197202 | Diff:           0 | Exact Match:          35 out of         200
Time:               605000 | Input A:       7804 | Result:     189916 | Golden:     189916 | Diff:           0 | Exact Match:          36 out of         200
Time:               615000 | Input A:       8166 | Result:     185659 | Golden:     185659 | Diff:           0 | Exact Match:          37 out of         200
Time:               625000 | Input A:       8192 | Result:     185365 | Golden:     185365 | Diff:           0 | Exact Match:          38 out of         200
Time:               635000 | Input A:       8625 | Result:     180651 | Golden:     180651 | Diff:           0 | Exact Match:          39 out of         200
Time:               645000 | Input A:       8747 | Result:     179387 | Golden:     179387 | Diff:           0 | Exact Match:          40 out of         200
Time:               655000 | Input A:       8822 | Result:     178623 | Golden:     178623 | Diff:           0 | Exact Match:          41 out of         200
Time:               665000 | Input A:       9320 | Result:     173786 | Golden:     173786 | Diff:           0 | Exact Match:          42 out of         200
Time:               675000 | Input A:       9381 | Result:     173220 | Golden:     173220 | Diff:           0 | Exact Match:          43 out of         200
Time:               685000 | Input A:       9394 | Result:     173100 | Golden:     173100 | Diff:           0 | Exact Match:          44 out of         200
Time:               695000 | Input A:       9899 | Result:     168627 | Golden:     168627 | Diff:           0 | Exact Match:          45 out of         200
Time:               705000 | Input A:       9906 | Result:     168567 | Golden:     168567 | Diff:           0 | Exact Match:          46 out of         200
Time:               715000 | Input A:      10324 | Result:     165119 | Golden:     165119 | Diff:           0 | Exact Match:          47 out of         200
Time:               725000 | Input A:      10498 | Result:     163745 | Golden:     163745 | Diff:           0 | Exact Match:          48 out of         200
Time:               735000 | Input A:      11631 | Result:     155565 | Golden:     155565 | Diff:           0 | Exact Match:          49 out of         200
Time:               745000 | Input A:      12005 | Result:     153123 | Golden:     153123 | Diff:           0 | Exact Match:          50 out of         200
Time:               755000 | Input A:      12185 | Result:     151988 | Golden:     151988 | Diff:           0 | Exact Match:          51 out of         200
Time:               765000 | Input A:      12505 | Result:     150031 | Golden:     150031 | Diff:           0 | Exact Match:          52 out of         200
Time:               775000 | Input A:      13222 | Result:     145906 | Golden:     145906 | Diff:           0 | Exact Match:          53 out of         200
Time:               785000 | Input A:      13287 | Result:     145549 | Golden:     145549 | Diff:           0 | Exact Match:          54 out of         200
Time:               795000 | Input A:      13321 | Result:     145363 | Golden:     145363 | Diff:           0 | Exact Match:          55 out of         200
Time:               805000 | Input A:      14054 | Result:     141521 | Golden:     141521 | Diff:           0 | Exact Match:          56 out of         200
Time:               815000 | Input A:      14183 | Result:     140876 | Golden:     140876 | Diff:           0 | Exact Match:          57 out of         200
Time:               825000 | Input A:      14299 | Result:     140303 | Golden:     140303 | Diff:           0 | Exact Match:          58 out of         200
Time:               835000 | Input A:      14349 | Result:     140059 | Golden:     140059 | Diff:           0 | Exact Match:          59 out of         200
Time:               845000 | Input A:      14512 | Result:     139270 | Golden:     139270 | Diff:           0 | Exact Match:          60 out of         200
Time:               855000 | Input A:      14727 | Result:     138250 | Golden:     138250 | Diff:           0 | Exact Match:          61 out of         200
Time:               865000 | Input A:      14965 | Result:     137146 | Golden:     137146 | Diff:           0 | Exact Match:          62 out of         200
Time:               875000 | Input A:      15582 | Result:     134403 | Golden:     134403 | Diff:           0 | Exact Match:          63 out of         200
Time:               885000 | Input A:      15658 | Result:     134077 | Golden:     134077 | Diff:           0 | Exact Match:          64 out of         200
Time:               895000 | Input A:      15904 | Result:     133036 | Golden:     133036 | Diff:           0 | Exact Match:          65 out of         200
Time:               905000 | Input A:      16384 | Result:     131072 | Golden:     131072 | Diff:           0 | Exact Match:          66 out of         200
Time:               915000 | Input A:      16520 | Result:     130532 | Golden:     130532 | Diff:           0 | Exact Match:          67 out of         200
Time:               925000 | Input A:      17076 | Result:     128389 | Golden:     128389 | Diff:           0 | Exact Match:          68 out of         200
Time:               935000 | Input A:      17397 | Result:     127200 | Golden:     127200 | Diff:           0 | Exact Match:          69 out of         200
Time:               945000 | Input A:      18423 | Result:     123607 | Golden:     123607 | Diff:           0 | Exact Match:          70 out of         200
Time:               955000 | Input A:      18665 | Result:     122803 | Golden:     122803 | Diff:           0 | Exact Match:          71 out of         200
Time:               965000 | Input A:      19148 | Result:     121244 | Golden:     121244 | Diff:           0 | Exact Match:          72 out of         200
Time:               975000 | Input A:      19260 | Result:     120891 | Golden:     120891 | Diff:           0 | Exact Match:          73 out of         200
Time:               985000 | Input A:      19328 | Result:     120678 | Golden:     120678 | Diff:           0 | Exact Match:          74 out of         200
Time:               995000 | Input A:      20630 | Result:     116808 | Golden:     116808 | Diff:           0 | Exact Match:          75 out of         200
Time:              1005000 | Input A:      20652 | Result:     116746 | Golden:     116746 | Diff:           0 | Exact Match:          76 out of         200
Time:              1015000 | Input A:      20724 | Result:     116543 | Golden:     116543 | Diff:           0 | Exact Match:          77 out of         200
Time:              1025000 | Input A:      20730 | Result:     116526 | Golden:     116526 | Diff:           0 | Exact Match:          78 out of         200
Time:              1035000 | Input A:      20982 | Result:     115824 | Golden:     115824 | Diff:           0 | Exact Match:          79 out of         200
Time:              1045000 | Input A:      21529 | Result:     114343 | Golden:     114343 | Diff:           0 | Exact Match:          80 out of         200
Time:              1055000 | Input A:      21548 | Result:     114293 | Golden:     114293 | Diff:           0 | Exact Match:          81 out of         200
Time:              1065000 | Input A:      23702 | Result:     108975 | Golden:     108975 | Diff:           0 | Exact Match:          82 out of         200
Time:              1075000 | Input A:      23985 | Result:     108331 | Golden:     108331 | Diff:           0 | Exact Match:          83 out of         200
Time:              1085000 | Input A:      24120 | Result:     108027 | Golden:     108027 | Diff:           0 | Exact Match:          84 out of         200
Time:              1095000 | Input A:      24241 | Result:     107757 | Golden:     107757 | Diff:           0 | Exact Match:          85 out of         200
Time:              1105000 | Input A:      24297 | Result:     107633 | Golden:     107633 | Diff:           0 | Exact Match:          86 out of         200
Time:              1115000 | Input A:      24871 | Result:     106384 | Golden:     106384 | Diff:           0 | Exact Match:          87 out of         200
Time:              1125000 | Input A:      24967 | Result:     106179 | Golden:     106179 | Diff:           0 | Exact Match:          88 out of         200
Time:              1135000 | Input A:      25167 | Result:     105756 | Golden:     105756 | Diff:           0 | Exact Match:          89 out of         200
Time:              1145000 | Input A:      25195 | Result:     105697 | Golden:     105697 | Diff:           0 | Exact Match:          90 out of         200
Time:              1155000 | Input A:      25231 | Result:     105622 | Golden:     105622 | Diff:           0 | Exact Match:          91 out of         200
Time:              1165000 | Input A:      25609 | Result:     104839 | Golden:     104839 | Diff:           0 | Exact Match:          92 out of         200
Time:              1175000 | Input A:      26262 | Result:     103528 | Golden:     103528 | Diff:           0 | Exact Match:          93 out of         200
Time:              1185000 | Input A:      26687 | Result:     102700 | Golden:     102700 | Diff:           0 | Exact Match:          94 out of         200
Time:              1195000 | Input A:      26724 | Result:     102629 | Golden:     102629 | Diff:           0 | Exact Match:          95 out of         200
Time:              1205000 | Input A:      27227 | Result:     101677 | Golden:     101677 | Diff:           0 | Exact Match:          96 out of         200
Time:              1215000 | Input A:      28164 | Result:      99971 | Golden:      99971 | Diff:           0 | Exact Match:          97 out of         200
Time:              1225000 | Input A:      28410 | Result:      99538 | Golden:      99538 | Diff:           0 | Exact Match:          98 out of         200
Time:              1235000 | Input A:      28425 | Result:      99511 | Golden:      99511 | Diff:           0 | Exact Match:          99 out of         200
Time:              1245000 | Input A:      28546 | Result:      99300 | Golden:      99300 | Diff:           0 | Exact Match:         100 out of         200
Time:              1255000 | Input A:      28826 | Result:      98817 | Golden:      98817 | Diff:           0 | Exact Match:         101 out of         200
Time:              1265000 | Input A:      28865 | Result:      98750 | Golden:      98750 | Diff:           0 | Exact Match:         102 out of         200
Time:              1275000 | Input A:      29484 | Result:      97708 | Golden:      97708 | Diff:           0 | Exact Match:         103 out of         200
Time:              1285000 | Input A:      29549 | Result:      97600 | Golden:      97600 | Diff:           0 | Exact Match:         104 out of         200
Time:              1295000 | Input A:      30630 | Result:      95862 | Golden:      95862 | Diff:           0 | Exact Match:         105 out of         200
Time:              1305000 | Input A:      30912 | Result:      95424 | Golden:      95424 | Diff:           0 | Exact Match:         106 out of         200
Time:              1315000 | Input A:      31692 | Result:      94243 | Golden:      94243 | Diff:           0 | Exact Match:         107 out of         200
Time:              1325000 | Input A:      31886 | Result:      93955 | Golden:      93955 | Diff:           0 | Exact Match:         108 out of         200
Time:              1335000 | Input A:      32002 | Result:      93785 | Golden:      93785 | Diff:           0 | Exact Match:         109 out of         200
Time:              1345000 | Input A:      32317 | Result:      93327 | Golden:      93327 | Diff:           0 | Exact Match:         110 out of         200
Time:              1355000 | Input A:      32474 | Result:      93101 | Golden:      93101 | Diff:           0 | Exact Match:         111 out of         200
Time:              1365000 | Input A:      32768 | Result:      92682 | Golden:      92682 | Diff:           0 | Exact Match:         112 out of         200
Time:              1375000 | Input A:      33605 | Result:      91520 | Golden:      91520 | Diff:           0 | Exact Match:         113 out of         200
Time:              1385000 | Input A:      34439 | Result:      90406 | Golden:      90406 | Diff:           0 | Exact Match:         114 out of         200
Time:              1395000 | Input A:      34574 | Result:      90229 | Golden:      90229 | Diff:           0 | Exact Match:         115 out of         200
Time:              1405000 | Input A:      35201 | Result:      89422 | Golden:      89422 | Diff:           0 | Exact Match:         116 out of         200
Time:              1415000 | Input A:      35203 | Result:      89419 | Golden:      89419 | Diff:           0 | Exact Match:         117 out of         200
Time:              1425000 | Input A:      35308 | Result:      89286 | Golden:      89286 | Diff:           0 | Exact Match:         118 out of         200
Time:              1435000 | Input A:      35592 | Result:      88929 | Golden:      88929 | Diff:           0 | Exact Match:         119 out of         200
Time:              1445000 | Input A:      35675 | Result:      88826 | Golden:      88826 | Diff:           0 | Exact Match:         120 out of         200
Time:              1455000 | Input A:      36129 | Result:      88266 | Golden:      88266 | Diff:           0 | Exact Match:         121 out of         200
Time:              1465000 | Input A:      36213 | Result:      88164 | Golden:      88164 | Diff:           0 | Exact Match:         122 out of         200
Time:              1475000 | Input A:      36439 | Result:      87890 | Golden:      87890 | Diff:           0 | Exact Match:         123 out of         200
Time:              1485000 | Input A:      37198 | Result:      86989 | Golden:      86989 | Diff:           0 | Exact Match:         124 out of         200
Time:              1495000 | Input A:      37232 | Result:      86949 | Golden:      86949 | Diff:           0 | Exact Match:         125 out of         200
Time:              1505000 | Input A:      38109 | Result:      85942 | Golden:      85942 | Diff:           0 | Exact Match:         126 out of         200
Time:              1515000 | Input A:      39242 | Result:      84692 | Golden:      84692 | Diff:           0 | Exact Match:         127 out of         200
Time:              1525000 | Input A:      39376 | Result:      84548 | Golden:      84548 | Diff:           0 | Exact Match:         128 out of         200
Time:              1535000 | Input A:      39834 | Result:      84061 | Golden:      84061 | Diff:           0 | Exact Match:         129 out of         200
Time:              1545000 | Input A:      39927 | Result:      83963 | Golden:      83963 | Diff:           0 | Exact Match:         130 out of         200
Time:              1555000 | Input A:      39939 | Result:      83951 | Golden:      83951 | Diff:           0 | Exact Match:         131 out of         200
Time:              1565000 | Input A:      40052 | Result:      83832 | Golden:      83832 | Diff:           0 | Exact Match:         132 out of         200
Time:              1575000 | Input A:      40239 | Result:      83637 | Golden:      83637 | Diff:           0 | Exact Match:         133 out of         200
Time:              1585000 | Input A:      40305 | Result:      83568 | Golden:      83568 | Diff:           0 | Exact Match:         134 out of         200
Time:              1595000 | Input A:      40466 | Result:      83402 | Golden:      83402 | Diff:           0 | Exact Match:         135 out of         200
Time:              1605000 | Input A:      40565 | Result:      83300 | Golden:      83300 | Diff:           0 | Exact Match:         136 out of         200
Time:              1615000 | Input A:      40740 | Result:      83121 | Golden:      83121 | Diff:           0 | Exact Match:         137 out of         200
Time:              1625000 | Input A:      40856 | Result:      83003 | Golden:      83003 | Diff:           0 | Exact Match:         138 out of         200
Time:              1635000 | Input A:      41340 | Result:      82516 | Golden:      82516 | Diff:           0 | Exact Match:         139 out of         200
Time:              1645000 | Input A:      41456 | Result:      82400 | Golden:      82400 | Diff:           0 | Exact Match:         140 out of         200
Time:              1655000 | Input A:      41537 | Result:      82320 | Golden:      82320 | Diff:           0 | Exact Match:         141 out of         200
Time:              1665000 | Input A:      41913 | Result:      81950 | Golden:      81950 | Diff:           0 | Exact Match:         142 out of         200
Time:              1675000 | Input A:      42201 | Result:      81669 | Golden:      81669 | Diff:           0 | Exact Match:         143 out of         200
Time:              1685000 | Input A:      43157 | Result:      80760 | Golden:      80760 | Diff:           0 | Exact Match:         144 out of         200
Time:              1695000 | Input A:      43249 | Result:      80674 | Golden:      80674 | Diff:           0 | Exact Match:         145 out of         200
Time:              1705000 | Input A:      43459 | Result:      80479 | Golden:      80479 | Diff:           0 | Exact Match:         146 out of         200
Time:              1715000 | Input A:      43529 | Result:      80414 | Golden:      80414 | Diff:           0 | Exact Match:         147 out of         200
Time:              1725000 | Input A:      43780 | Result:      80183 | Golden:      80183 | Diff:           0 | Exact Match:         148 out of         200
Time:              1735000 | Input A:      44016 | Result:      79968 | Golden:      79968 | Diff:           0 | Exact Match:         149 out of         200
Time:              1745000 | Input A:      44237 | Result:      79768 | Golden:      79768 | Diff:           0 | Exact Match:         150 out of         200
Time:              1755000 | Input A:      45061 | Result:      79035 | Golden:      79035 | Diff:           0 | Exact Match:         151 out of         200
Time:              1765000 | Input A:      45797 | Result:      78398 | Golden:      78398 | Diff:           0 | Exact Match:         152 out of         200
Time:              1775000 | Input A:      45872 | Result:      78334 | Golden:      78334 | Diff:           0 | Exact Match:         153 out of         200
Time:              1785000 | Input A:      46515 | Result:      77791 | Golden:      77791 | Diff:           0 | Exact Match:         154 out of         200
Time:              1795000 | Input A:      46781 | Result:      77569 | Golden:      77569 | Diff:           0 | Exact Match:         155 out of         200
Time:              1805000 | Input A:      47059 | Result:      77339 | Golden:      77339 | Diff:           0 | Exact Match:         156 out of         200
Time:              1815000 | Input A:      47068 | Result:      77332 | Golden:      77332 | Diff:           0 | Exact Match:         157 out of         200
Time:              1825000 | Input A:      47507 | Result:      76974 | Golden:      76974 | Diff:           0 | Exact Match:         158 out of         200
Time:              1835000 | Input A:      48249 | Result:      76380 | Golden:      76380 | Diff:           0 | Exact Match:         159 out of         200
Time:              1845000 | Input A:      48330 | Result:      76316 | Golden:      76316 | Diff:           0 | Exact Match:         160 out of         200
Time:              1855000 | Input A:      49076 | Result:      75733 | Golden:      75733 | Diff:           0 | Exact Match:         161 out of         200
Time:              1865000 | Input A:      49501 | Result:      75408 | Golden:      75408 | Diff:           0 | Exact Match:         162 out of         200
Time:              1875000 | Input A:      49745 | Result:      75222 | Golden:      75222 | Diff:           0 | Exact Match:         163 out of         200
Time:              1885000 | Input A:      50055 | Result:      74989 | Golden:      74989 | Diff:           0 | Exact Match:         164 out of         200
Time:              1895000 | Input A:      50586 | Result:      74594 | Golden:      74594 | Diff:           0 | Exact Match:         165 out of         200
Time:              1905000 | Input A:      50972 | Result:      74311 | Golden:      74311 | Diff:           0 | Exact Match:         166 out of         200
Time:              1915000 | Input A:      51395 | Result:      74005 | Golden:      74005 | Diff:           0 | Exact Match:         167 out of         200
Time:              1925000 | Input A:      51737 | Result:      73760 | Golden:      73760 | Diff:           0 | Exact Match:         168 out of         200
Time:              1935000 | Input A:      52462 | Result:      73249 | Golden:      73249 | Diff:           0 | Exact Match:         169 out of         200
Time:              1945000 | Input A:      52477 | Result:      73238 | Golden:      73238 | Diff:           0 | Exact Match:         170 out of         200
Time:              1955000 | Input A:      53518 | Result:      72522 | Golden:      72522 | Diff:           0 | Exact Match:         171 out of         200
Time:              1965000 | Input A:      54308 | Result:      71993 | Golden:      71993 | Diff:           0 | Exact Match:         172 out of         200
Time:              1975000 | Input A:      54465 | Result:      71889 | Golden:      71889 | Diff:           0 | Exact Match:         173 out of         200
Time:              1985000 | Input A:      54775 | Result:      71686 | Golden:      71686 | Diff:           0 | Exact Match:         174 out of         200
Time:              1995000 | Input A:      55182 | Result:      71420 | Golden:      71420 | Diff:           0 | Exact Match:         175 out of         200
Time:              2005000 | Input A:      55722 | Result:      71073 | Golden:      71073 | Diff:           0 | Exact Match:         176 out of         200
Time:              2015000 | Input A:      56173 | Result:      70788 | Golden:      70788 | Diff:           0 | Exact Match:         177 out of         200
Time:              2025000 | Input A:      56760 | Result:      70421 | Golden:      70421 | Diff:           0 | Exact Match:         178 out of         200
Time:              2035000 | Input A:      56902 | Result:      70333 | Golden:      70333 | Diff:           0 | Exact Match:         179 out of         200
Time:              2045000 | Input A:      57258 | Result:      70113 | Golden:      70113 | Diff:           0 | Exact Match:         180 out of         200
Time:              2055000 | Input A:      57990 | Result:      69670 | Golden:      69670 | Diff:           0 | Exact Match:         181 out of         200
Time:              2065000 | Input A:      58109 | Result:      69599 | Golden:      69599 | Diff:           0 | Exact Match:         182 out of         200
Time:              2075000 | Input A:      59720 | Result:      68653 | Golden:      68653 | Diff:           0 | Exact Match:         183 out of         200
Time:              2085000 | Input A:      59894 | Result:      68553 | Golden:      68553 | Diff:           0 | Exact Match:         184 out of         200
Time:              2095000 | Input A:      59922 | Result:      68537 | Golden:      68537 | Diff:           0 | Exact Match:         185 out of         200
Time:              2105000 | Input A:      60101 | Result:      68435 | Golden:      68435 | Diff:           0 | Exact Match:         186 out of         200
Time:              2115000 | Input A:      60189 | Result:      68385 | Golden:      68385 | Diff:           0 | Exact Match:         187 out of         200
Time:              2125000 | Input A:      60398 | Result:      68267 | Golden:      68267 | Diff:           0 | Exact Match:         188 out of         200
Time:              2135000 | Input A:      60934 | Result:      67966 | Golden:      67966 | Diff:           0 | Exact Match:         189 out of         200
Time:              2145000 | Input A:      61035 | Result:      67910 | Golden:      67910 | Diff:           0 | Exact Match:         190 out of         200
Time:              2155000 | Input A:      61280 | Result:      67774 | Golden:      67774 | Diff:           0 | Exact Match:         191 out of         200
Time:              2165000 | Input A:      61536 | Result:      67633 | Golden:      67633 | Diff:           0 | Exact Match:         192 out of         200
Time:              2175000 | Input A:      61561 | Result:      67619 | Golden:      67619 | Diff:           0 | Exact Match:         193 out of         200
Time:              2185000 | Input A:      62345 | Result:      67192 | Golden:      67192 | Diff:           0 | Exact Match:         194 out of         200
Time:              2195000 | Input A:      63329 | Result:      66668 | Golden:      66668 | Diff:           0 | Exact Match:         195 out of         200
Time:              2205000 | Input A:      63351 | Result:      66657 | Golden:      66657 | Diff:           0 | Exact Match:         196 out of         200
Time:              2215000 | Input A:      63439 | Result:      66610 | Golden:      66610 | Diff:           0 | Exact Match:         197 out of         200
Time:              2225000 | Input A:      63787 | Result:      66429 | Golden:      66429 | Diff:           0 | Exact Match:         198 out of         200
Time:              2235000 | Input A:      64562 | Result:      66029 | Golden:      66029 | Diff:           0 | Exact Match:         199 out of         200
Time:              2245000 | Input A:      65338 | Result:      65636 | Golden:      65636 | Diff:           0 | Exact Match:         200 out of         200
Testbench complete.
