logs/verilog/top_output.txt
VCD info: dumpfile top.vcd opened for output.
Time:               225000 | Input A:   254 | Result:   257 | Golden:   257 | Diff:     0
Time:               235000 | Input A:   255 | Result:   256 | Golden:   257 | Diff:     1
Time:               245000 | Input A:   256 | Result:   255 | Golden:   256 | Diff:     1
Time:               255000 | Input A:   257 | Result:   255 | Golden:   256 | Diff:     1
Time:               265000 | Input A:     1 | Result:  4097 | Golden:  4096 | Diff:     1
Time:               275000 | Input A:     4 | Result:  2048 | Golden:  2048 | Diff:     0
Time:               285000 | Input A:    16 | Result:  1023 | Golden:  1024 | Diff:     1
Time:               295000 | Input A:    64 | Result:   511 | Golden:   512 | Diff:     1
Time:               305000 | Input A:   256 | Result:   255 | Golden:   256 | Diff:     1
Time:               315000 | Input A:  1024 | Result:   127 | Golden:   128 | Diff:     1
Time:               325000 | Input A:  4096 | Result:    64 | Golden:    64 | Diff:     0
Time:               335000 | Input A: 16384 | Result:    33 | Golden:    32 | Diff:     1
Time:               345000 | Input A: 32768 | Result:    25 | Golden:    23 | Diff:     2
Time:               355000 | Input A:   576 | Result:   171 | Golden:   171 | Diff:     0
Time:               365000 | Input A:  2304 | Result:    85 | Golden:    85 | Diff:     0
Time:               375000 | Input A:  6400 | Result:    53 | Golden:    51 | Diff:     2
Time:               385000 | Input A: 16384 | Result:    33 | Golden:    32 | Diff:     1
Time:               395000 | Input A: 36864 | Result:    21 | Golden:    21 | Diff:     0
Time:               405000 | Input A:   511 | Result:   182 | Golden:   181 | Diff:     1
Time:               415000 | Input A:   512 | Result:   181 | Golden:   181 | Diff:     0
Time:               425000 | Input A:   513 | Result:   181 | Golden:   181 | Diff:     0
Time:               435000 | Input A:  2047 | Result:    91 | Golden:    91 | Diff:     0
Time:               445000 | Input A:  2048 | Result:    90 | Golden:    91 | Diff:     1
Time:               455000 | Input A:  2049 | Result:    90 | Golden:    90 | Diff:     0
Time:               465000 | Input A: 43690 | Result:    24 | Golden:    20 | Diff:     4
Time:               475000 | Input A: 21845 | Result:    28 | Golden:    28 | Diff:     0
Time:               485000 | Input A: 12345 | Result:    38 | Golden:    37 | Diff:     1
Time:               495000 | Input A: 54321 | Result:    19 | Golden:    18 | Diff:     1
Time:               505000 | Input A: 65535 | Result:    16 | Golden:    16 | Diff:     0
Time:               515000 | Input A:     2 | Result:  2895 | Golden:  2896 | Diff:     1
Time:               525000 | Input A:     3 | Result:  2366 | Golden:  2365 | Diff:     1
Time:               535000 | Input A:     5 | Result:  1832 | Golden:  1832 | Diff:     0
Time:               545000 | Input A:     7 | Result:  1551 | Golden:  1548 | Diff:     3
Testbench complete.
