logs/verilog/top_output.txt
VCD info: dumpfile top.vcd opened for output.
Time:               255000 | Input A:      61510 | Result:      67647 | Golden:      67647 | Diff:           0 | Exact Match:           1 out of         200
Time:               265000 | Input A:      16155 | Result:     131998 | Golden:     131998 | Diff:           0 | Exact Match:           2 out of         200
Time:               275000 | Input A:      59054 | Result:      69039 | Golden:      69039 | Diff:           0 | Exact Match:           3 out of         200
Time:               285000 | Input A:      54068 | Result:      72152 | Golden:      72152 | Diff:           0 | Exact Match:           4 out of         200
Time:               295000 | Input A:      18495 | Result:     123366 | Golden:     123366 | Diff:           0 | Exact Match:           5 out of         200
Time:               305000 | Input A:      64161 | Result:      66235 | Golden:      66235 | Diff:           0 | Exact Match:           6 out of         200
Time:               315000 | Input A:       4854 | Result:     240809 | Golden:     240809 | Diff:           0 | Exact Match:           7 out of         200
Time:               325000 | Input A:      54159 | Result:      72092 | Golden:      72092 | Diff:           0 | Exact Match:           8 out of         200
Time:               335000 | Input A:      17131 | Result:     128183 | Golden:     128183 | Diff:           0 | Exact Match:           9 out of         200
Time:               345000 | Input A:      54222 | Result:      72050 | Golden:      72050 | Diff:           0 | Exact Match:          10 out of         200
Time:               355000 | Input A:      22099 | Result:     112859 | Golden:     112859 | Diff:           0 | Exact Match:          11 out of         200
Time:               365000 | Input A:      25614 | Result:     104829 | Golden:     104829 | Diff:           0 | Exact Match:          12 out of         200
Time:               375000 | Input A:      35916 | Result:      88527 | Golden:      88527 | Diff:           0 | Exact Match:          13 out of         200
Time:               385000 | Input A:      36160 | Result:      88228 | Golden:      88228 | Diff:           0 | Exact Match:          14 out of         200
Time:               395000 | Input A:      45873 | Result:      78333 | Golden:      78333 | Diff:           0 | Exact Match:          15 out of         200
Time:               405000 | Input A:       1163 | Result:     491961 | Golden:     491961 | Diff:           0 | Exact Match:          16 out of         200
Time:               415000 | Input A:      18102 | Result:     124698 | Golden:     124698 | Diff:           0 | Exact Match:          17 out of         200
Time:               425000 | Input A:      22668 | Result:     111433 | Golden:     111433 | Diff:           0 | Exact Match:          18 out of         200
Time:               435000 | Input A:      29417 | Result:      97819 | Golden:      97819 | Diff:           0 | Exact Match:          19 out of         200
Time:               445000 | Input A:      57298 | Result:      70090 | Golden:      70090 | Diff:           0 | Exact Match:          20 out of         200
Time:               455000 | Input A:      63508 | Result:      66574 | Golden:      66574 | Diff:           0 | Exact Match:          21 out of         200
Time:               465000 | Input A:      24888 | Result:     106347 | Golden:     106347 | Diff:           0 | Exact Match:          22 out of         200
Time:               475000 | Input A:      55513 | Result:      71207 | Golden:      71207 | Diff:           0 | Exact Match:          23 out of         200
Time:               485000 | Input A:       8755 | Result:     179305 | Golden:     179305 | Diff:           0 | Exact Match:          24 out of         200
Time:               495000 | Input A:      38242 | Result:      85793 | Golden:      85793 | Diff:           0 | Exact Match:          25 out of         200
Time:               505000 | Input A:      29566 | Result:      97572 | Golden:      97572 | Diff:           0 | Exact Match:          26 out of         200
Time:               515000 | Input A:       7865 | Result:     189179 | Golden:     189179 | Diff:           0 | Exact Match:          27 out of         200
Time:               525000 | Input A:       3857 | Result:     270144 | Golden:     270144 | Diff:           0 | Exact Match:          28 out of         200
Time:               535000 | Input A:      16109 | Result:     132187 | Golden:     132187 | Diff:           0 | Exact Match:          29 out of         200
Time:               545000 | Input A:      55928 | Result:      70942 | Golden:      70942 | Diff:           0 | Exact Match:          30 out of         200
Time:               555000 | Input A:      52005 | Result:      73569 | Golden:      73569 | Diff:           0 | Exact Match:          31 out of         200
Time:               565000 | Input A:      63980 | Result:      66328 | Golden:      66328 | Diff:           0 | Exact Match:          32 out of         200
Time:               575000 | Input A:       8812 | Result:     178724 | Golden:     178724 | Diff:           0 | Exact Match:          33 out of         200
Time:               585000 | Input A:      58498 | Result:      69366 | Golden:      69366 | Diff:           0 | Exact Match:          34 out of         200
Time:               595000 | Input A:      39746 | Result:      84154 | Golden:      84154 | Diff:           0 | Exact Match:          35 out of         200
Time:               605000 | Input A:      62212 | Result:      67264 | Golden:      67264 | Diff:           0 | Exact Match:          36 out of         200
Time:               615000 | Input A:      53466 | Result:      72558 | Golden:      72558 | Diff:           0 | Exact Match:          37 out of         200
Time:               625000 | Input A:      27211 | Result:     101706 | Golden:     101706 | Diff:           0 | Exact Match:          38 out of         200
Time:               635000 | Input A:      18029 | Result:     124950 | Golden:     124950 | Diff:           0 | Exact Match:          39 out of         200
Time:               645000 | Input A:      48074 | Result:      76519 | Golden:      76519 | Diff:           0 | Exact Match:          40 out of         200
Time:               655000 | Input A:      14061 | Result:     141486 | Golden:     141486 | Diff:           0 | Exact Match:          41 out of         200
Time:               665000 | Input A:      42539 | Result:      81344 | Golden:      81344 | Diff:           0 | Exact Match:          42 out of         200
Time:               675000 | Input A:      27077 | Result:     101958 | Golden:     101958 | Diff:           0 | Exact Match:          43 out of         200
Time:               685000 | Input A:      45684 | Result:      78495 | Golden:      78495 | Diff:           0 | Exact Match:          44 out of         200
Time:               695000 | Input A:      26788 | Result:     102506 | Golden:     102506 | Diff:           0 | Exact Match:          45 out of         200
Time:               705000 | Input A:      15239 | Result:     135907 | Golden:     135907 | Diff:           0 | Exact Match:          46 out of         200
Time:               715000 | Input A:      15052 | Result:     136749 | Golden:     136749 | Diff:           0 | Exact Match:          47 out of         200
Time:               725000 | Input A:      58681 | Result:      69258 | Golden:      69258 | Diff:           0 | Exact Match:          48 out of         200
Time:               735000 | Input A:      53498 | Result:      72535 | Golden:      72535 | Diff:           0 | Exact Match:          49 out of         200
Time:               745000 | Input A:      61695 | Result:      67546 | Golden:      67546 | Diff:           0 | Exact Match:          50 out of         200
Time:               755000 | Input A:      40874 | Result:      82985 | Golden:      82985 | Diff:           0 | Exact Match:          51 out of         200
Time:               765000 | Input A:      48815 | Result:      75935 | Golden:      75935 | Diff:           0 | Exact Match:          52 out of         200
Time:               775000 | Input A:      50203 | Result:      74879 | Golden:      74879 | Diff:           0 | Exact Match:          53 out of         200
Time:               785000 | Input A:      28564 | Result:      99269 | Golden:      99269 | Diff:           0 | Exact Match:          54 out of         200
Time:               795000 | Input A:      45047 | Result:      79048 | Golden:      79048 | Diff:           0 | Exact Match:          55 out of         200
Time:               805000 | Input A:      51033 | Result:      74267 | Golden:      74267 | Diff:           0 | Exact Match:          56 out of         200
Time:               815000 | Input A:      60853 | Result:      68011 | Golden:      68011 | Diff:           0 | Exact Match:          57 out of         200
Time:               825000 | Input A:      44826 | Result:      79242 | Golden:      79242 | Diff:           0 | Exact Match:          58 out of         200
Time:               835000 | Input A:      41874 | Result:      81988 | Golden:      81988 | Diff:           0 | Exact Match:          59 out of         200
Time:               845000 | Input A:      38886 | Result:      85079 | Golden:      85079 | Diff:           0 | Exact Match:          60 out of         200
Time:               855000 | Input A:      12363 | Result:     150890 | Golden:     150890 | Diff:           0 | Exact Match:          61 out of         200
Time:               865000 | Input A:      60677 | Result:      68110 | Golden:      68110 | Diff:           0 | Exact Match:          62 out of         200
Time:               875000 | Input A:      16490 | Result:     130651 | Golden:     130651 | Diff:           0 | Exact Match:          63 out of         200
Time:               885000 | Input A:       8445 | Result:     182567 | Golden:     182567 | Diff:           0 | Exact Match:          64 out of         200
Time:               895000 | Input A:      45585 | Result:      78580 | Golden:      78580 | Diff:           0 | Exact Match:          65 out of         200
Time:               905000 | Input A:      37282 | Result:      86891 | Golden:      86891 | Diff:           0 | Exact Match:          66 out of         200
Time:               915000 | Input A:      10564 | Result:     163233 | Golden:     163233 | Diff:           0 | Exact Match:          67 out of         200
Time:               925000 | Input A:      27437 | Result:     101287 | Golden:     101287 | Diff:           0 | Exact Match:          68 out of         200
Time:               935000 | Input A:      22856 | Result:     110974 | Golden:     110974 | Diff:           0 | Exact Match:          69 out of         200
Time:               945000 | Input A:      31228 | Result:      94940 | Golden:      94940 | Diff:           0 | Exact Match:          70 out of         200
Time:               955000 | Input A:      43795 | Result:      80169 | Golden:      80169 | Diff:           0 | Exact Match:          71 out of         200
Time:               965000 | Input A:      45271 | Result:      78852 | Golden:      78852 | Diff:           0 | Exact Match:          72 out of         200
Time:               975000 | Input A:      26144 | Result:     103762 | Golden:     103762 | Diff:           0 | Exact Match:          73 out of         200
Time:               985000 | Input A:       1523 | Result:     429903 | Golden:     429903 | Diff:           0 | Exact Match:          74 out of         200
Time:               995000 | Input A:      15368 | Result:     135336 | Golden:     135336 | Diff:           0 | Exact Match:          75 out of         200
Time:              1005000 | Input A:      57497 | Result:      69968 | Golden:      69968 | Diff:           0 | Exact Match:          76 out of         200
Time:              1015000 | Input A:      17427 | Result:     127090 | Golden:     127090 | Diff:           0 | Exact Match:          77 out of         200
Time:              1025000 | Input A:       4193 | Result:     259096 | Golden:     259096 | Diff:           0 | Exact Match:          78 out of         200
Time:              1035000 | Input A:      46422 | Result:      77868 | Golden:      77868 | Diff:           0 | Exact Match:          79 out of         200
Time:              1045000 | Input A:      59459 | Result:      68804 | Golden:      68804 | Diff:           0 | Exact Match:          80 out of         200
Time:              1055000 | Input A:      38462 | Result:      85547 | Golden:      85547 | Diff:           0 | Exact Match:          81 out of         200
Time:              1065000 | Input A:      57584 | Result:      69915 | Golden:      69915 | Diff:           0 | Exact Match:          82 out of         200
Time:              1075000 | Input A:      17095 | Result:     128318 | Golden:     128318 | Diff:           0 | Exact Match:          83 out of         200
Time:              1085000 | Input A:       6892 | Result:     202092 | Golden:     202092 | Diff:           0 | Exact Match:          84 out of         200
Time:              1095000 | Input A:      39003 | Result:      84952 | Golden:      84952 | Diff:           0 | Exact Match:          85 out of         200
Time:              1105000 | Input A:      54693 | Result:      71739 | Golden:      71739 | Diff:           0 | Exact Match:          86 out of         200
Time:              1115000 | Input A:      61020 | Result:      67918 | Golden:      67918 | Diff:           0 | Exact Match:          87 out of         200
Time:              1125000 | Input A:      46053 | Result:      78180 | Golden:      78180 | Diff:           0 | Exact Match:          88 out of         200
Time:              1135000 | Input A:      19880 | Result:     118991 | Golden:     118991 | Diff:           0 | Exact Match:          89 out of         200
Time:              1145000 | Input A:      16053 | Result:     132417 | Golden:     132417 | Diff:           0 | Exact Match:          90 out of         200
Time:              1155000 | Input A:      23371 | Result:     109745 | Golden:     109745 | Diff:           0 | Exact Match:          91 out of         200
Time:              1165000 | Input A:      61131 | Result:      67856 | Golden:      67856 | Diff:           0 | Exact Match:          92 out of         200
Time:              1175000 | Input A:      36308 | Result:      88048 | Golden:      88048 | Diff:           0 | Exact Match:          93 out of         200
Time:              1185000 | Input A:      52179 | Result:      73447 | Golden:      73447 | Diff:           0 | Exact Match:          94 out of         200
Time:              1195000 | Input A:      26522 | Result:     103019 | Golden:     103019 | Diff:           0 | Exact Match:          95 out of         200
Time:              1205000 | Input A:      50145 | Result:      74922 | Golden:      74922 | Diff:           0 | Exact Match:          96 out of         200
Time:              1215000 | Input A:      36104 | Result:      88297 | Golden:      88297 | Diff:           0 | Exact Match:          97 out of         200
Time:              1225000 | Input A:      62112 | Result:      67318 | Golden:      67318 | Diff:           0 | Exact Match:          98 out of         200
Time:              1235000 | Input A:      31917 | Result:      93910 | Golden:      93910 | Diff:           0 | Exact Match:          99 out of         200
Time:              1245000 | Input A:      61824 | Result:      67475 | Golden:      67475 | Diff:           0 | Exact Match:         100 out of         200
Time:              1255000 | Input A:      47014 | Result:      77377 | Golden:      77377 | Diff:           0 | Exact Match:         101 out of         200
Time:              1265000 | Input A:      48889 | Result:      75878 | Golden:      75878 | Diff:           0 | Exact Match:         102 out of         200
Time:              1275000 | Input A:       2389 | Result:     343251 | Golden:     343251 | Diff:           0 | Exact Match:         103 out of         200
Time:              1285000 | Input A:      30628 | Result:      95865 | Golden:      95865 | Diff:           0 | Exact Match:         104 out of         200
Time:              1295000 | Input A:      30998 | Result:      95292 | Golden:      95292 | Diff:           0 | Exact Match:         105 out of         200
Time:              1305000 | Input A:      14946 | Result:     137233 | Golden:     137233 | Diff:           0 | Exact Match:         106 out of         200
Time:              1315000 | Input A:      59708 | Result:      68660 | Golden:      68660 | Diff:           0 | Exact Match:         107 out of         200
Time:              1325000 | Input A:       3213 | Result:     295982 | Golden:     295982 | Diff:           0 | Exact Match:         108 out of         200
Time:              1335000 | Input A:       1519 | Result:     430470 | Golden:     430470 | Diff:           0 | Exact Match:         109 out of         200
Time:              1345000 | Input A:      39776 | Result:      84122 | Golden:      84122 | Diff:           0 | Exact Match:         110 out of         200
Time:              1355000 | Input A:      11982 | Result:     153270 | Golden:     153270 | Diff:           0 | Exact Match:         111 out of         200
Time:              1365000 | Input A:      19722 | Result:     119467 | Golden:     119467 | Diff:           0 | Exact Match:         112 out of         200
Time:              1375000 | Input A:      37828 | Result:      86261 | Golden:      86261 | Diff:           0 | Exact Match:         113 out of         200
Time:              1385000 | Input A:      14680 | Result:     138471 | Golden:     138471 | Diff:           0 | Exact Match:         114 out of         200
Time:              1395000 | Input A:      11655 | Result:     155405 | Golden:     155405 | Diff:           0 | Exact Match:         115 out of         200
Time:              1405000 | Input A:       2667 | Result:     324870 | Golden:     324870 | Diff:           0 | Exact Match:         116 out of         200
Time:              1415000 | Input A:       8928 | Result:     177559 | Golden:     177559 | Diff:           0 | Exact Match:         117 out of         200
Time:              1425000 | Input A:      17982 | Result:     125113 | Golden:     125113 | Diff:           0 | Exact Match:         118 out of         200
Time:              1435000 | Input A:      59705 | Result:      68662 | Golden:      68662 | Diff:           0 | Exact Match:         119 out of         200
Time:              1445000 | Input A:      32916 | Result:      92473 | Golden:      92473 | Diff:           0 | Exact Match:         120 out of         200
Time:              1455000 | Input A:      43118 | Result:      80796 | Golden:      80796 | Diff:           0 | Exact Match:         121 out of         200
Time:              1465000 | Input A:      37158 | Result:      87035 | Golden:      87035 | Diff:           0 | Exact Match:         122 out of         200
Time:              1475000 | Input A:      59657 | Result:      68689 | Golden:      68689 | Diff:           0 | Exact Match:         123 out of         200
Time:              1485000 | Input A:      60563 | Result:      68174 | Golden:      68174 | Diff:           0 | Exact Match:         124 out of         200
Time:              1495000 | Input A:      20006 | Result:     118616 | Golden:     118616 | Diff:           0 | Exact Match:         125 out of         200
Time:              1505000 | Input A:      53445 | Result:      72572 | Golden:      72572 | Diff:           0 | Exact Match:         126 out of         200
Time:              1515000 | Input A:      42666 | Result:      81223 | Golden:      81223 | Diff:           0 | Exact Match:         127 out of         200
Time:              1525000 | Input A:      12864 | Result:     147922 | Golden:     147922 | Diff:           0 | Exact Match:         128 out of         200
Time:              1535000 | Input A:      26283 | Result:     103486 | Golden:     103486 | Diff:           0 | Exact Match:         129 out of         200
Time:              1545000 | Input A:       4940 | Result:     238704 | Golden:     238704 | Diff:           0 | Exact Match:         130 out of         200
Time:              1555000 | Input A:      17360 | Result:     127335 | Golden:     127335 | Diff:           0 | Exact Match:         131 out of         200
Time:              1565000 | Input A:      42698 | Result:      81193 | Golden:      81193 | Diff:           0 | Exact Match:         132 out of         200
Time:              1575000 | Input A:      33547 | Result:      91600 | Golden:      91600 | Diff:           0 | Exact Match:         133 out of         200
Time:              1585000 | Input A:      17719 | Result:     126038 | Golden:     126038 | Diff:           0 | Exact Match:         134 out of         200
Time:              1595000 | Input A:      39312 | Result:      84618 | Golden:      84618 | Diff:           0 | Exact Match:         135 out of         200
Time:              1605000 | Input A:       6570 | Result:     206985 | Golden:     206985 | Diff:           0 | Exact Match:         136 out of         200
Time:              1615000 | Input A:      15757 | Result:     133655 | Golden:     133655 | Diff:           0 | Exact Match:         137 out of         200
Time:              1625000 | Input A:      63886 | Result:      66377 | Golden:      66377 | Diff:           0 | Exact Match:         138 out of         200
Time:              1635000 | Input A:      56589 | Result:      70527 | Golden:      70527 | Diff:           0 | Exact Match:         139 out of         200
Time:              1645000 | Input A:      10308 | Result:     165248 | Golden:     165248 | Diff:           0 | Exact Match:         140 out of         200
Time:              1655000 | Input A:      63641 | Result:      66505 | Golden:      66505 | Diff:           0 | Exact Match:         141 out of         200
Time:              1665000 | Input A:      59344 | Result:      68871 | Golden:      68871 | Diff:           0 | Exact Match:         142 out of         200
Time:              1675000 | Input A:      40825 | Result:      83035 | Golden:      83035 | Diff:           0 | Exact Match:         143 out of         200
Time:              1685000 | Input A:      24036 | Result:     108216 | Golden:     108216 | Diff:           0 | Exact Match:         144 out of         200
Time:              1695000 | Input A:      52773 | Result:      73033 | Golden:      73033 | Diff:           0 | Exact Match:         145 out of         200
Time:              1705000 | Input A:      15404 | Result:     135178 | Golden:     135178 | Diff:           0 | Exact Match:         146 out of         200
Time:              1715000 | Input A:      14689 | Result:     138428 | Golden:     138428 | Diff:           0 | Exact Match:         147 out of         200
Time:              1725000 | Input A:      65206 | Result:      65702 | Golden:      65702 | Diff:           0 | Exact Match:         148 out of         200
Time:              1735000 | Input A:      53300 | Result:      72670 | Golden:      72670 | Diff:           0 | Exact Match:         149 out of         200
Time:              1745000 | Input A:      14165 | Result:     140966 | Golden:     140966 | Diff:           0 | Exact Match:         150 out of         200
Time:              1755000 | Input A:       3443 | Result:     285926 | Golden:     285926 | Diff:           0 | Exact Match:         151 out of         200
Time:              1765000 | Input A:       8645 | Result:     180443 | Golden:     180443 | Diff:           0 | Exact Match:         152 out of         200
Time:              1775000 | Input A:      41120 | Result:      82736 | Golden:      82736 | Diff:           0 | Exact Match:         153 out of         200
Time:              1785000 | Input A:      41156 | Result:      82700 | Golden:      82700 | Diff:           0 | Exact Match:         154 out of         200
Time:              1795000 | Input A:      16108 | Result:     132191 | Golden:     132191 | Diff:           0 | Exact Match:         155 out of         200
Time:              1805000 | Input A:      19167 | Result:     121184 | Golden:     121184 | Diff:           0 | Exact Match:         156 out of         200
Time:              1815000 | Input A:      48229 | Result:      76396 | Golden:      76396 | Diff:           0 | Exact Match:         157 out of         200
Time:              1825000 | Input A:       8360 | Result:     183492 | Golden:     183492 | Diff:           0 | Exact Match:         158 out of         200
Time:              1835000 | Input A:      34800 | Result:      89936 | Golden:      89936 | Diff:           0 | Exact Match:         159 out of         200
Time:              1845000 | Input A:      24433 | Result:     107333 | Golden:     107333 | Diff:           0 | Exact Match:         160 out of         200
Time:              1855000 | Input A:      58802 | Result:      69188 | Golden:      69188 | Diff:           0 | Exact Match:         161 out of         200
Time:              1865000 | Input A:      10103 | Result:     166915 | Golden:     166915 | Diff:           0 | Exact Match:         162 out of         200
Time:              1875000 | Input A:       5916 | Result:     218127 | Golden:     218127 | Diff:           0 | Exact Match:         163 out of         200
Time:              1885000 | Input A:      29935 | Result:      96969 | Golden:      96969 | Diff:           0 | Exact Match:         164 out of         200
Time:              1895000 | Input A:      39846 | Result:      84049 | Golden:      84049 | Diff:           0 | Exact Match:         165 out of         200
Time:              1905000 | Input A:      63790 | Result:      66427 | Golden:      66427 | Diff:           0 | Exact Match:         166 out of         200
Time:              1915000 | Input A:      45308 | Result:      78820 | Golden:      78820 | Diff:           0 | Exact Match:         167 out of         200
Time:              1925000 | Input A:      44817 | Result:      79250 | Golden:      79250 | Diff:           0 | Exact Match:         168 out of         200
Time:              1935000 | Input A:      25500 | Result:     105063 | Golden:     105063 | Diff:           0 | Exact Match:         169 out of         200
Time:              1945000 | Input A:      30871 | Result:      95487 | Golden:      95487 | Diff:           0 | Exact Match:         170 out of         200
Time:              1955000 | Input A:      62952 | Result:      66868 | Golden:      66868 | Diff:           0 | Exact Match:         171 out of         200
Time:              1965000 | Input A:      58161 | Result:      69568 | Golden:      69568 | Diff:           0 | Exact Match:         172 out of         200
Time:              1975000 | Input A:       3345 | Result:     290083 | Golden:     290083 | Diff:           0 | Exact Match:         173 out of         200
Time:              1985000 | Input A:      17171 | Result:     128034 | Golden:     128034 | Diff:           0 | Exact Match:         174 out of         200
Time:              1995000 | Input A:      50544 | Result:      74625 | Golden:      74625 | Diff:           0 | Exact Match:         175 out of         200
Time:              2005000 | Input A:      33996 | Result:      90993 | Golden:      90993 | Diff:           0 | Exact Match:         176 out of         200
Time:              2015000 | Input A:      27541 | Result:     101095 | Golden:     101095 | Diff:           0 | Exact Match:         177 out of         200
Time:              2025000 | Input A:      44944 | Result:      79138 | Golden:      79138 | Diff:           0 | Exact Match:         178 out of         200
Time:              2035000 | Input A:      38799 | Result:      85175 | Golden:      85175 | Diff:           0 | Exact Match:         179 out of         200
Time:              2045000 | Input A:      57253 | Result:      70117 | Golden:      70117 | Diff:           0 | Exact Match:         180 out of         200
Time:              2055000 | Input A:       8953 | Result:     177311 | Golden:     177311 | Diff:           0 | Exact Match:         181 out of         200
Time:              2065000 | Input A:      10709 | Result:     162124 | Golden:     162124 | Diff:           0 | Exact Match:         182 out of         200
Time:              2075000 | Input A:       5035 | Result:     236441 | Golden:     236441 | Diff:           0 | Exact Match:         183 out of         200
Time:              2085000 | Input A:      22762 | Result:     111203 | Golden:     111203 | Diff:           0 | Exact Match:         184 out of         200
Time:              2095000 | Input A:      24297 | Result:     107633 | Golden:     107633 | Diff:           0 | Exact Match:         185 out of         200
Time:              2105000 | Input A:      43647 | Result:      80305 | Golden:      80305 | Diff:           0 | Exact Match:         186 out of         200
Time:              2115000 | Input A:      45005 | Result:      79085 | Golden:      79085 | Diff:           0 | Exact Match:         187 out of         200
Time:              2125000 | Input A:      52660 | Result:      73110 | Golden:      73110 | Diff:           0 | Exact Match:         188 out of         200
Time:              2135000 | Input A:       1494 | Result:     434057 | Golden:     434057 | Diff:           0 | Exact Match:         189 out of         200
Time:              2145000 | Input A:      46955 | Result:      77425 | Golden:      77425 | Diff:           0 | Exact Match:         190 out of         200
Time:              2155000 | Input A:      21660 | Result:     113997 | Golden:     113997 | Diff:           0 | Exact Match:         191 out of         200
Time:              2165000 | Input A:      50649 | Result:      74548 | Golden:      74548 | Diff:           0 | Exact Match:         192 out of         200
Time:              2175000 | Input A:      63857 | Result:      66392 | Golden:      66392 | Diff:           0 | Exact Match:         193 out of         200
Time:              2185000 | Input A:      44836 | Result:      79233 | Golden:      79233 | Diff:           0 | Exact Match:         194 out of         200
Time:              2195000 | Input A:      13381 | Result:     145036 | Golden:     145036 | Diff:           0 | Exact Match:         195 out of         200
Time:              2205000 | Input A:      33033 | Result:      92310 | Golden:      92310 | Diff:           0 | Exact Match:         196 out of         200
Time:              2215000 | Input A:      26987 | Result:     102128 | Golden:     102128 | Diff:           0 | Exact Match:         197 out of         200
Time:              2225000 | Input A:      64202 | Result:      66214 | Golden:      66214 | Diff:           0 | Exact Match:         198 out of         200
Time:              2235000 | Input A:      45344 | Result:      78788 | Golden:      78788 | Diff:           0 | Exact Match:         199 out of         200
Time:              2245000 | Input A:      53247 | Result:      72706 | Golden:      72706 | Diff:           0 | Exact Match:         200 out of         200
Testbench complete.
