logs/verilog/top_output.txt
VCD info: dumpfile top.vcd opened for output.
Time:               255000 | Input A:        254 | Result:    1052704 | Golden:    1052696 | Diff:          8
Time:               265000 | Input A:        255 | Result:    1050632 | Golden:    1050630 | Diff:          2
Time:               275000 | Input A:        256 | Result:    1048576 | Golden:    1048576 | Diff:          0
Time:               285000 | Input A:        257 | Result:    1046535 | Golden:    1046534 | Diff:          1
Time:               295000 | Input A:          1 | Result:   16777278 | Golden:   16777216 | Diff:         62
Time:               305000 | Input A:          4 | Result:    8388608 | Golden:    8388608 | Diff:          0
Time:               315000 | Input A:         16 | Result:    4194304 | Golden:    4194304 | Diff:          0
Time:               325000 | Input A:         64 | Result:    2097152 | Golden:    2097152 | Diff:          0
Time:               335000 | Input A:        256 | Result:    1048576 | Golden:    1048576 | Diff:          0
Time:               345000 | Input A:       1024 | Result:     524288 | Golden:     524288 | Diff:          0
Time:               355000 | Input A:       4096 | Result:     262144 | Golden:     262144 | Diff:          0
Time:               365000 | Input A:      16384 | Result:     131072 | Golden:     131072 | Diff:          0
Time:               375000 | Input A:      32768 | Result:      92682 | Golden:      92682 | Diff:          0
Time:               385000 | Input A:        576 | Result:     699052 | Golden:     699051 | Diff:          1
Time:               395000 | Input A:       2304 | Result:     349526 | Golden:     349525 | Diff:          1
Time:               405000 | Input A:       6400 | Result:     209715 | Golden:     209715 | Diff:          0
Time:               415000 | Input A:      16384 | Result:     131072 | Golden:     131072 | Diff:          0
Time:               425000 | Input A:      36864 | Result:      87381 | Golden:      87381 | Diff:          0
Time:               435000 | Input A:        511 | Result:     741785 | Golden:     742180 | Diff:        395
Time:               445000 | Input A:        512 | Result:     741458 | Golden:     741455 | Diff:          3
Time:               455000 | Input A:        513 | Result:     740734 | Golden:     740732 | Diff:          2
Time:               465000 | Input A:       2047 | Result:     370612 | Golden:     370818 | Diff:        206
Time:               475000 | Input A:       2048 | Result:     370729 | Golden:     370728 | Diff:          1
Time:               485000 | Input A:       2049 | Result:     370637 | Golden:     370637 | Diff:          0
Time:               495000 | Input A:      43690 | Result:      80265 | Golden:      80265 | Diff:          0
Time:               505000 | Input A:      21845 | Result:     113512 | Golden:     113513 | Diff:          1
Time:               515000 | Input A:      12345 | Result:     151000 | Golden:     150999 | Diff:          1
Time:               525000 | Input A:      54321 | Result:      71984 | Golden:      71984 | Diff:          0
Time:               535000 | Input A:      65535 | Result:      65536 | Golden:      65537 | Diff:          1
Time:               545000 | Input A:          2 | Result:   11863338 | Golden:   11863283 | Diff:         55
Time:               555000 | Input A:          3 | Result:    9686396 | Golden:    9686330 | Diff:         66
Time:               565000 | Input A:          5 | Result:    7503047 | Golden:    7502999 | Diff:         48
Time:               575000 | Input A:          7 | Result:    6341136 | Golden:    6341192 | Diff:         56
Testbench complete.
